Session 13 polished lab
…
Summarise:

from the table, we can know the fllowing result: - 17031(Cook County): highest number of black, lowest white, highest Cost Burden, - 17097(Lake County): highest number of Asian people, highest Median Household income - 17093(Kendall County): Highest House ownership rate

It seems interesting that the highest median household income area has the highest percent of Asian people. it may tell us there is a potential that the Asian living in Chicago area has relatively higher salary job or high education. What about in the entire Illinois area? We can go back to the census tracts data: acs_data.

## # A tibble: 3,123 x 3
##    GEOID       Asian_il MHHI_il
##  * <chr>          <dbl>   <dbl>
##  1 17001000100 0.00105    48088
##  2 17001000201 0.00907    44855
##  3 17001000202 0.000842   50375
##  4 17001000400 0.00906    30164
##  5 17001000500 0.00782    41008
##  6 17001000600 0.00789    54950
##  7 17001000700 0.00614    19869
##  8 17001000800 0.00503    26738
##  9 17001000900 0          46897
## 10 17001001001 0.00230    55708
## # ... with 3,113 more rows

Rearranging the rows in descending order of the Asian_il column:

## # A tibble: 3,123 x 3
##    GEOID       Asian_il MHHI_il
##    <chr>          <dbl>   <dbl>
##  1 17031841100    0.863   35723
##  2 17031340300    0.815   33333
##  3 17031340400    0.807   50256
##  4 17031840100    0.649   50469
##  5 17031600400    0.623   37786
##  6 17031840200    0.578   61806
##  7 17031803016    0.549  102679
##  8 17019000302    0.546   10385
##  9 17031806003    0.469   68018
## 10 17031350100    0.457   44896
## # ... with 3,113 more rows
…
